test/data/beamformer.vcd
$date Mon Apr  9 20:10:41 2018
 $end
$version pl_vdc_dumper $end
$timescale 1 ns $end
$scope module beamformer $end
$scope module in_w $end
$var wire 16 beamformer_in_w0 0 $end
$var wire 16 beamformer_in_w1 1 $end
$var wire 16 beamformer_in_w2 2 $end
$var wire 16 beamformer_in_w3 3 $end
$upscope $end
$scope module out_w $end
$var wire 16 beamformer_out_w0 0 $end
$var wire 16 beamformer_out_w1 1 $end
$var wire 16 beamformer_out_w2 2 $end
$var wire 16 beamformer_out_w3 3 $end
$var wire 16 beamformer_out_w4 4 $end
$var wire 16 beamformer_out_w5 5 $end
$var wire 16 beamformer_out_w6 6 $end
$var wire 16 beamformer_out_w7 7 $end
$upscope $end
$upscope $end
$enddefinitions $end
#0
b0000000000000000 beamformer_in_w0
b0000000000000000 beamformer_in_w1
b0000000000000000 beamformer_in_w2
b0000000000000000 beamformer_in_w3
b0000000000000000 beamformer_out_w0
b0000000000000000 beamformer_out_w1
b0000000000000000 beamformer_out_w2
b0000000000000000 beamformer_out_w3
b0000000000000000 beamformer_out_w4
b0000000000000000 beamformer_out_w5
b0000000000000000 beamformer_out_w6
b0000000000000000 beamformer_out_w7
#1
b0000000000000001 beamformer_in_w0
b0000000000000001 beamformer_in_w1
b0000000000000001 beamformer_in_w2
b0000000000000001 beamformer_in_w3
b0000000000000001 beamformer_out_w0
b0000000000000001 beamformer_out_w1
b0000000000000001 beamformer_out_w2
b0000000000000001 beamformer_out_w3
b0000000000000001 beamformer_out_w4
b0000000000000001 beamformer_out_w5
b0000000000000001 beamformer_out_w6
b0000000000000001 beamformer_out_w7
#2
b0000000000000010 beamformer_in_w0
b0000000000000010 beamformer_in_w1
b0000000000000010 beamformer_in_w2
b0000000000000010 beamformer_in_w3
b0000000000000010 beamformer_out_w0
b0000000000000010 beamformer_out_w1
b0000000000000010 beamformer_out_w2
b0000000000000010 beamformer_out_w3
b0000000000000010 beamformer_out_w4
b0000000000000010 beamformer_out_w5
b0000000000000010 beamformer_out_w6
b0000000000000010 beamformer_out_w7
#3
b0000000000000011 beamformer_in_w0
b0000000000000011 beamformer_in_w1
b0000000000000011 beamformer_in_w2
b0000000000000011 beamformer_in_w3
b0000000000000011 beamformer_out_w0
b0000000000000011 beamformer_out_w1
b0000000000000011 beamformer_out_w2
b0000000000000011 beamformer_out_w3
b0000000000000011 beamformer_out_w4
b0000000000000011 beamformer_out_w5
b0000000000000011 beamformer_out_w6
b0000000000000011 beamformer_out_w7
#4
b0000000000000100 beamformer_in_w0
b0000000000000100 beamformer_in_w1
b0000000000000100 beamformer_in_w2
b0000000000000100 beamformer_in_w3
b0000000000000100 beamformer_out_w0
b0000000000000100 beamformer_out_w1
b0000000000000100 beamformer_out_w2
b0000000000000100 beamformer_out_w3
b0000000000000100 beamformer_out_w4
b0000000000000100 beamformer_out_w5
b0000000000000100 beamformer_out_w6
b0000000000000100 beamformer_out_w7
#5
b0000000000000101 beamformer_in_w0
b0000000000000101 beamformer_in_w1
b0000000000000101 beamformer_in_w2
b0000000000000101 beamformer_in_w3
b0000000000000101 beamformer_out_w0
b0000000000000101 beamformer_out_w1
b0000000000000101 beamformer_out_w2
b0000000000000101 beamformer_out_w3
b0000000000000101 beamformer_out_w4
b0000000000000101 beamformer_out_w5
b0000000000000101 beamformer_out_w6
b0000000000000101 beamformer_out_w7
#6
b0000000000000110 beamformer_in_w0
b0000000000000110 beamformer_in_w1
b0000000000000110 beamformer_in_w2
b0000000000000110 beamformer_in_w3
b0000000000000110 beamformer_out_w0
b0000000000000110 beamformer_out_w1
b0000000000000110 beamformer_out_w2
b0000000000000110 beamformer_out_w3
b0000000000000110 beamformer_out_w4
b0000000000000110 beamformer_out_w5
b0000000000000110 beamformer_out_w6
b0000000000000110 beamformer_out_w7
#7
b0000000000000111 beamformer_in_w0
b0000000000000111 beamformer_in_w1
b0000000000000111 beamformer_in_w2
b0000000000000111 beamformer_in_w3
b0000000000000111 beamformer_out_w0
b0000000000000111 beamformer_out_w1
b0000000000000111 beamformer_out_w2
b0000000000000111 beamformer_out_w3
b0000000000000111 beamformer_out_w4
b0000000000000111 beamformer_out_w5
b0000000000000111 beamformer_out_w6
b0000000000000111 beamformer_out_w7
#8
b0000000000001000 beamformer_in_w0
b0000000000001000 beamformer_in_w1
b0000000000001000 beamformer_in_w2
b0000000000001000 beamformer_in_w3
b0000000000001000 beamformer_out_w0
b0000000000001000 beamformer_out_w1
b0000000000001000 beamformer_out_w2
b0000000000001000 beamformer_out_w3
b0000000000001000 beamformer_out_w4
b0000000000001000 beamformer_out_w5
b0000000000001000 beamformer_out_w6
b0000000000001000 beamformer_out_w7
#9
b0000000000001001 beamformer_in_w0
b0000000000001001 beamformer_in_w1
b0000000000001001 beamformer_in_w2
b0000000000001001 beamformer_in_w3
b0000000000001001 beamformer_out_w0
b0000000000001001 beamformer_out_w1
b0000000000001001 beamformer_out_w2
b0000000000001001 beamformer_out_w3
b0000000000001001 beamformer_out_w4
b0000000000001001 beamformer_out_w5
b0000000000001001 beamformer_out_w6
b0000000000001001 beamformer_out_w7
#10
b0000000000001010 beamformer_in_w0
b0000000000001010 beamformer_in_w1
b0000000000001010 beamformer_in_w2
b0000000000001010 beamformer_in_w3
b0000000000001010 beamformer_out_w0
b0000000000001010 beamformer_out_w1
b0000000000001010 beamformer_out_w2
b0000000000001010 beamformer_out_w3
b0000000000001010 beamformer_out_w4
b0000000000001010 beamformer_out_w5
b0000000000001010 beamformer_out_w6
b0000000000001010 beamformer_out_w7
#11
b0000000000001011 beamformer_in_w0
b0000000000001011 beamformer_in_w1
b0000000000001011 beamformer_in_w2
b0000000000001011 beamformer_in_w3
b0000000000001011 beamformer_out_w0
b0000000000001011 beamformer_out_w1
b0000000000001011 beamformer_out_w2
b0000000000001011 beamformer_out_w3
b0000000000001011 beamformer_out_w4
b0000000000001011 beamformer_out_w5
b0000000000001011 beamformer_out_w6
b0000000000001011 beamformer_out_w7
#12
b0000000000001100 beamformer_in_w0
b0000000000001100 beamformer_in_w1
b0000000000001100 beamformer_in_w2
b0000000000001100 beamformer_in_w3
b0000000000001100 beamformer_out_w0
b0000000000001100 beamformer_out_w1
b0000000000001100 beamformer_out_w2
b0000000000001100 beamformer_out_w3
b0000000000001100 beamformer_out_w4
b0000000000001100 beamformer_out_w5
b0000000000001100 beamformer_out_w6
b0000000000001100 beamformer_out_w7
#13
b0000000000001101 beamformer_in_w0
b0000000000001101 beamformer_in_w1
b0000000000001101 beamformer_in_w2
b0000000000001101 beamformer_in_w3
b0000000000001101 beamformer_out_w0
b0000000000001101 beamformer_out_w1
b0000000000001101 beamformer_out_w2
b0000000000001101 beamformer_out_w3
b0000000000001101 beamformer_out_w4
b0000000000001101 beamformer_out_w5
b0000000000001101 beamformer_out_w6
b0000000000001101 beamformer_out_w7
#14
b0000000000001110 beamformer_in_w0
b0000000000001110 beamformer_in_w1
b0000000000001110 beamformer_in_w2
b0000000000001110 beamformer_in_w3
b0000000000001110 beamformer_out_w0
b0000000000001110 beamformer_out_w1
b0000000000001110 beamformer_out_w2
b0000000000001110 beamformer_out_w3
b0000000000001110 beamformer_out_w4
b0000000000001110 beamformer_out_w5
b0000000000001110 beamformer_out_w6
b0000000000001110 beamformer_out_w7
#15
b0000000000001111 beamformer_in_w0
b0000000000001111 beamformer_in_w1
b0000000000001111 beamformer_in_w2
b0000000000001111 beamformer_in_w3
b0000000000001111 beamformer_out_w0
b0000000000001111 beamformer_out_w1
b0000000000001111 beamformer_out_w2
b0000000000001111 beamformer_out_w3
b0000000000001111 beamformer_out_w4
b0000000000001111 beamformer_out_w5
b0000000000001111 beamformer_out_w6
b0000000000001111 beamformer_out_w7
#16
b0000000000010000 beamformer_in_w0
b0000000000010000 beamformer_in_w1
b0000000000010000 beamformer_in_w2
b0000000000010000 beamformer_in_w3
b0000000000010000 beamformer_out_w0
b0000000000010000 beamformer_out_w1
b0000000000010000 beamformer_out_w2
b0000000000010000 beamformer_out_w3
b0000000000010000 beamformer_out_w4
b0000000000010000 beamformer_out_w5
b0000000000010000 beamformer_out_w6
b0000000000010000 beamformer_out_w7
#17
b0000000000010001 beamformer_in_w0
b0000000000010001 beamformer_in_w1
b0000000000010001 beamformer_in_w2
b0000000000010001 beamformer_in_w3
b0000000000010001 beamformer_out_w0
b0000000000010001 beamformer_out_w1
b0000000000010001 beamformer_out_w2
b0000000000010001 beamformer_out_w3
b0000000000010001 beamformer_out_w4
b0000000000010001 beamformer_out_w5
b0000000000010001 beamformer_out_w6
b0000000000010001 beamformer_out_w7
#18
b0000000000010010 beamformer_in_w0
b0000000000010010 beamformer_in_w1
b0000000000010010 beamformer_in_w2
b0000000000010010 beamformer_in_w3
b0000000000010010 beamformer_out_w0
b0000000000010010 beamformer_out_w1
b0000000000010010 beamformer_out_w2
b0000000000010010 beamformer_out_w3
b0000000000010010 beamformer_out_w4
b0000000000010010 beamformer_out_w5
b0000000000010010 beamformer_out_w6
b0000000000010010 beamformer_out_w7
#19
b0000000000010011 beamformer_in_w0
b0000000000010011 beamformer_in_w1
b0000000000010011 beamformer_in_w2
b0000000000010011 beamformer_in_w3
b0000000000010011 beamformer_out_w0
b0000000000010011 beamformer_out_w1
b0000000000010011 beamformer_out_w2
b0000000000010011 beamformer_out_w3
b0000000000010011 beamformer_out_w4
b0000000000010011 beamformer_out_w5
b0000000000010011 beamformer_out_w6
b0000000000010011 beamformer_out_w7
#20
b0000000000010100 beamformer_in_w0
b0000000000010100 beamformer_in_w1
b0000000000010100 beamformer_in_w2
b0000000000010100 beamformer_in_w3
b0000000000010100 beamformer_out_w0
b0000000000010100 beamformer_out_w1
b0000000000010100 beamformer_out_w2
b0000000000010100 beamformer_out_w3
b0000000000010100 beamformer_out_w4
b0000000000010100 beamformer_out_w5
b0000000000010100 beamformer_out_w6
b0000000000010100 beamformer_out_w7
#21
b0000000000010101 beamformer_in_w0
b0000000000010101 beamformer_in_w1
b0000000000010101 beamformer_in_w2
b0000000000010101 beamformer_in_w3
b0000000000010101 beamformer_out_w0
b0000000000010101 beamformer_out_w1
b0000000000010101 beamformer_out_w2
b0000000000010101 beamformer_out_w3
b0000000000010101 beamformer_out_w4
b0000000000010101 beamformer_out_w5
b0000000000010101 beamformer_out_w6
b0000000000010101 beamformer_out_w7
#22
b0000000000010110 beamformer_in_w0
b0000000000010110 beamformer_in_w1
b0000000000010110 beamformer_in_w2
b0000000000010110 beamformer_in_w3
b0000000000010110 beamformer_out_w0
b0000000000010110 beamformer_out_w1
b0000000000010110 beamformer_out_w2
b0000000000010110 beamformer_out_w3
b0000000000010110 beamformer_out_w4
b0000000000010110 beamformer_out_w5
b0000000000010110 beamformer_out_w6
b0000000000010110 beamformer_out_w7
#23
b0000000000010111 beamformer_in_w0
b0000000000010111 beamformer_in_w1
b0000000000010111 beamformer_in_w2
b0000000000010111 beamformer_in_w3
b0000000000010111 beamformer_out_w0
b0000000000010111 beamformer_out_w1
b0000000000010111 beamformer_out_w2
b0000000000010111 beamformer_out_w3
b0000000000010111 beamformer_out_w4
b0000000000010111 beamformer_out_w5
b0000000000010111 beamformer_out_w6
b0000000000010111 beamformer_out_w7
#24
b0000000000011000 beamformer_in_w0
b0000000000011000 beamformer_in_w1
b0000000000011000 beamformer_in_w2
b0000000000011000 beamformer_in_w3
b0000000000011000 beamformer_out_w0
b0000000000011000 beamformer_out_w1
b0000000000011000 beamformer_out_w2
b0000000000011000 beamformer_out_w3
b0000000000011000 beamformer_out_w4
b0000000000011000 beamformer_out_w5
b0000000000011000 beamformer_out_w6
b0000000000011000 beamformer_out_w7
#25
b0000000000011001 beamformer_in_w0
b0000000000011001 beamformer_in_w1
b0000000000011001 beamformer_in_w2
b0000000000011001 beamformer_in_w3
b0000000000011001 beamformer_out_w0
b0000000000011001 beamformer_out_w1
b0000000000011001 beamformer_out_w2
b0000000000011001 beamformer_out_w3
b0000000000011001 beamformer_out_w4
b0000000000011001 beamformer_out_w5
b0000000000011001 beamformer_out_w6
b0000000000011001 beamformer_out_w7
#26
b0000000000011010 beamformer_in_w0
b0000000000011010 beamformer_in_w1
b0000000000011010 beamformer_in_w2
b0000000000011010 beamformer_in_w3
b0000000000011010 beamformer_out_w0
b0000000000011010 beamformer_out_w1
b0000000000011010 beamformer_out_w2
b0000000000011010 beamformer_out_w3
b0000000000011010 beamformer_out_w4
b0000000000011010 beamformer_out_w5
b0000000000011010 beamformer_out_w6
b0000000000011010 beamformer_out_w7
#27
b0000000000011011 beamformer_in_w0
b0000000000011011 beamformer_in_w1
b0000000000011011 beamformer_in_w2
b0000000000011011 beamformer_in_w3
b0000000000011011 beamformer_out_w0
b0000000000011011 beamformer_out_w1
b0000000000011011 beamformer_out_w2
b0000000000011011 beamformer_out_w3
b0000000000011011 beamformer_out_w4
b0000000000011011 beamformer_out_w5
b0000000000011011 beamformer_out_w6
b0000000000011011 beamformer_out_w7
#28
b0000000000011100 beamformer_in_w0
b0000000000011100 beamformer_in_w1
b0000000000011100 beamformer_in_w2
b0000000000011100 beamformer_in_w3
b0000000000011100 beamformer_out_w0
b0000000000011100 beamformer_out_w1
b0000000000011100 beamformer_out_w2
b0000000000011100 beamformer_out_w3
b0000000000011100 beamformer_out_w4
b0000000000011100 beamformer_out_w5
b0000000000011100 beamformer_out_w6
b0000000000011100 beamformer_out_w7
#29
b0000000000011101 beamformer_in_w0
b0000000000011101 beamformer_in_w1
b0000000000011101 beamformer_in_w2
b0000000000011101 beamformer_in_w3
b0000000000011101 beamformer_out_w0
b0000000000011101 beamformer_out_w1
b0000000000011101 beamformer_out_w2
b0000000000011101 beamformer_out_w3
b0000000000011101 beamformer_out_w4
b0000000000011101 beamformer_out_w5
b0000000000011101 beamformer_out_w6
b0000000000011101 beamformer_out_w7
#30
b0000000000011110 beamformer_in_w0
b0000000000011110 beamformer_in_w1
b0000000000011110 beamformer_in_w2
b0000000000011110 beamformer_in_w3
b0000000000011110 beamformer_out_w0
b0000000000011110 beamformer_out_w1
b0000000000011110 beamformer_out_w2
b0000000000011110 beamformer_out_w3
b0000000000011110 beamformer_out_w4
b0000000000011110 beamformer_out_w5
b0000000000011110 beamformer_out_w6
b0000000000011110 beamformer_out_w7
#31
b0000000000011111 beamformer_in_w0
b0000000000011111 beamformer_in_w1
b0000000000011111 beamformer_in_w2
b0000000000011111 beamformer_in_w3
b0000000000011111 beamformer_out_w0
b0000000000011111 beamformer_out_w1
b0000000000011111 beamformer_out_w2
b0000000000011111 beamformer_out_w3
b0000000000011111 beamformer_out_w4
b0000000000011111 beamformer_out_w5
b0000000000011111 beamformer_out_w6
b0000000000011111 beamformer_out_w7
#32
b0000000000100000 beamformer_in_w0
b0000000000100000 beamformer_in_w1
b0000000000100000 beamformer_in_w2
b0000000000100000 beamformer_in_w3
b0000000000100000 beamformer_out_w0
b0000000000100000 beamformer_out_w1
b0000000000100000 beamformer_out_w2
b0000000000100000 beamformer_out_w3
b0000000000100000 beamformer_out_w4
b0000000000100000 beamformer_out_w5
b0000000000100000 beamformer_out_w6
b0000000000100000 beamformer_out_w7
#33
b0000000000100001 beamformer_in_w0
b0000000000100001 beamformer_in_w1
b0000000000100001 beamformer_in_w2
b0000000000100001 beamformer_in_w3
b0000000000100001 beamformer_out_w0
b0000000000100001 beamformer_out_w1
b0000000000100001 beamformer_out_w2
b0000000000100001 beamformer_out_w3
b0000000000100001 beamformer_out_w4
b0000000000100001 beamformer_out_w5
b0000000000100001 beamformer_out_w6
b0000000000100001 beamformer_out_w7
#34
b0000000000100010 beamformer_in_w0
b0000000000100010 beamformer_in_w1
b0000000000100010 beamformer_in_w2
b0000000000100010 beamformer_in_w3
b0000000000100010 beamformer_out_w0
b0000000000100010 beamformer_out_w1
b0000000000100010 beamformer_out_w2
b0000000000100010 beamformer_out_w3
b0000000000100010 beamformer_out_w4
b0000000000100010 beamformer_out_w5
b0000000000100010 beamformer_out_w6
b0000000000100010 beamformer_out_w7
#35
b0000000000100011 beamformer_in_w0
b0000000000100011 beamformer_in_w1
b0000000000100011 beamformer_in_w2
b0000000000100011 beamformer_in_w3
b0000000000100011 beamformer_out_w0
b0000000000100011 beamformer_out_w1
b0000000000100011 beamformer_out_w2
b0000000000100011 beamformer_out_w3
b0000000000100011 beamformer_out_w4
b0000000000100011 beamformer_out_w5
b0000000000100011 beamformer_out_w6
b0000000000100011 beamformer_out_w7
#36
b0000000000100100 beamformer_in_w0
b0000000000100100 beamformer_in_w1
b0000000000100100 beamformer_in_w2
b0000000000100100 beamformer_in_w3
b0000000000100100 beamformer_out_w0
b0000000000100100 beamformer_out_w1
b0000000000100100 beamformer_out_w2
b0000000000100100 beamformer_out_w3
b0000000000100100 beamformer_out_w4
b0000000000100100 beamformer_out_w5
b0000000000100100 beamformer_out_w6
b0000000000100100 beamformer_out_w7
#37
b0000000000100101 beamformer_in_w0
b0000000000100101 beamformer_in_w1
b0000000000100101 beamformer_in_w2
b0000000000100101 beamformer_in_w3
b0000000000100101 beamformer_out_w0
b0000000000100101 beamformer_out_w1
b0000000000100101 beamformer_out_w2
b0000000000100101 beamformer_out_w3
b0000000000100101 beamformer_out_w4
b0000000000100101 beamformer_out_w5
b0000000000100101 beamformer_out_w6
b0000000000100101 beamformer_out_w7
#38
b0000000000100110 beamformer_in_w0
b0000000000100110 beamformer_in_w1
b0000000000100110 beamformer_in_w2
b0000000000100110 beamformer_in_w3
b0000000000100110 beamformer_out_w0
b0000000000100110 beamformer_out_w1
b0000000000100110 beamformer_out_w2
b0000000000100110 beamformer_out_w3
b0000000000100110 beamformer_out_w4
b0000000000100110 beamformer_out_w5
b0000000000100110 beamformer_out_w6
b0000000000100110 beamformer_out_w7
#39
b0000000000100111 beamformer_in_w0
b0000000000100111 beamformer_in_w1
b0000000000100111 beamformer_in_w2
b0000000000100111 beamformer_in_w3
b0000000000100111 beamformer_out_w0
b0000000000100111 beamformer_out_w1
b0000000000100111 beamformer_out_w2
b0000000000100111 beamformer_out_w3
b0000000000100111 beamformer_out_w4
b0000000000100111 beamformer_out_w5
b0000000000100111 beamformer_out_w6
b0000000000100111 beamformer_out_w7
#40
b0000000000101000 beamformer_in_w0
b0000000000101000 beamformer_in_w1
b0000000000101000 beamformer_in_w2
b0000000000101000 beamformer_in_w3
b0000000000101000 beamformer_out_w0
b0000000000101000 beamformer_out_w1
b0000000000101000 beamformer_out_w2
b0000000000101000 beamformer_out_w3
b0000000000101000 beamformer_out_w4
b0000000000101000 beamformer_out_w5
b0000000000101000 beamformer_out_w6
b0000000000101000 beamformer_out_w7
#41
b0000000000101001 beamformer_in_w0
b0000000000101001 beamformer_in_w1
b0000000000101001 beamformer_in_w2
b0000000000101001 beamformer_in_w3
b0000000000101001 beamformer_out_w0
b0000000000101001 beamformer_out_w1
b0000000000101001 beamformer_out_w2
b0000000000101001 beamformer_out_w3
b0000000000101001 beamformer_out_w4
b0000000000101001 beamformer_out_w5
b0000000000101001 beamformer_out_w6
b0000000000101001 beamformer_out_w7
#42
b0000000000101010 beamformer_in_w0
b0000000000101010 beamformer_in_w1
b0000000000101010 beamformer_in_w2
b0000000000101010 beamformer_in_w3
b0000000000101010 beamformer_out_w0
b0000000000101010 beamformer_out_w1
b0000000000101010 beamformer_out_w2
b0000000000101010 beamformer_out_w3
b0000000000101010 beamformer_out_w4
b0000000000101010 beamformer_out_w5
b0000000000101010 beamformer_out_w6
b0000000000101010 beamformer_out_w7
#43
b0000000000101011 beamformer_in_w0
b0000000000101011 beamformer_in_w1
b0000000000101011 beamformer_in_w2
b0000000000101011 beamformer_in_w3
b0000000000101011 beamformer_out_w0
b0000000000101011 beamformer_out_w1
b0000000000101011 beamformer_out_w2
b0000000000101011 beamformer_out_w3
b0000000000101011 beamformer_out_w4
b0000000000101011 beamformer_out_w5
b0000000000101011 beamformer_out_w6
b0000000000101011 beamformer_out_w7
#44
b0000000000101100 beamformer_in_w0
b0000000000101100 beamformer_in_w1
b0000000000101100 beamformer_in_w2
b0000000000101100 beamformer_in_w3
b0000000000101100 beamformer_out_w0
b0000000000101100 beamformer_out_w1
b0000000000101100 beamformer_out_w2
b0000000000101100 beamformer_out_w3
b0000000000101100 beamformer_out_w4
b0000000000101100 beamformer_out_w5
b0000000000101100 beamformer_out_w6
b0000000000101100 beamformer_out_w7
#45
b0000000000101101 beamformer_in_w0
b0000000000101101 beamformer_in_w1
b0000000000101101 beamformer_in_w2
b0000000000101101 beamformer_in_w3
b0000000000101101 beamformer_out_w0
b0000000000101101 beamformer_out_w1
b0000000000101101 beamformer_out_w2
b0000000000101101 beamformer_out_w3
b0000000000101101 beamformer_out_w4
b0000000000101101 beamformer_out_w5
b0000000000101101 beamformer_out_w6
b0000000000101101 beamformer_out_w7
#46
b0000000000101110 beamformer_in_w0
b0000000000101110 beamformer_in_w1
b0000000000101110 beamformer_in_w2
b0000000000101110 beamformer_in_w3
b0000000000101110 beamformer_out_w0
b0000000000101110 beamformer_out_w1
b0000000000101110 beamformer_out_w2
b0000000000101110 beamformer_out_w3
b0000000000101110 beamformer_out_w4
b0000000000101110 beamformer_out_w5
b0000000000101110 beamformer_out_w6
b0000000000101110 beamformer_out_w7
#47
b0000000000101111 beamformer_in_w0
b0000000000101111 beamformer_in_w1
b0000000000101111 beamformer_in_w2
b0000000000101111 beamformer_in_w3
b0000000000101111 beamformer_out_w0
b0000000000101111 beamformer_out_w1
b0000000000101111 beamformer_out_w2
b0000000000101111 beamformer_out_w3
b0000000000101111 beamformer_out_w4
b0000000000101111 beamformer_out_w5
b0000000000101111 beamformer_out_w6
b0000000000101111 beamformer_out_w7
#48
b0000000000110000 beamformer_in_w0
b0000000000110000 beamformer_in_w1
b0000000000110000 beamformer_in_w2
b0000000000110000 beamformer_in_w3
b0000000000110000 beamformer_out_w0
b0000000000110000 beamformer_out_w1
b0000000000110000 beamformer_out_w2
b0000000000110000 beamformer_out_w3
b0000000000110000 beamformer_out_w4
b0000000000110000 beamformer_out_w5
b0000000000110000 beamformer_out_w6
b0000000000110000 beamformer_out_w7
#49
b0000000000110001 beamformer_in_w0
b0000000000110001 beamformer_in_w1
b0000000000110001 beamformer_in_w2
b0000000000110001 beamformer_in_w3
b0000000000110001 beamformer_out_w0
b0000000000110001 beamformer_out_w1
b0000000000110001 beamformer_out_w2
b0000000000110001 beamformer_out_w3
b0000000000110001 beamformer_out_w4
b0000000000110001 beamformer_out_w5
b0000000000110001 beamformer_out_w6
b0000000000110001 beamformer_out_w7
#50
b0000000000110010 beamformer_in_w0
b0000000000110010 beamformer_in_w1
b0000000000110010 beamformer_in_w2
b0000000000110010 beamformer_in_w3
b0000000000110010 beamformer_out_w0
b0000000000110010 beamformer_out_w1
b0000000000110010 beamformer_out_w2
b0000000000110010 beamformer_out_w3
b0000000000110010 beamformer_out_w4
b0000000000110010 beamformer_out_w5
b0000000000110010 beamformer_out_w6
b0000000000110010 beamformer_out_w7
#51
b0000000000110011 beamformer_in_w0
b0000000000110011 beamformer_in_w1
b0000000000110011 beamformer_in_w2
b0000000000110011 beamformer_in_w3
b0000000000110011 beamformer_out_w0
b0000000000110011 beamformer_out_w1
b0000000000110011 beamformer_out_w2
b0000000000110011 beamformer_out_w3
b0000000000110011 beamformer_out_w4
b0000000000110011 beamformer_out_w5
b0000000000110011 beamformer_out_w6
b0000000000110011 beamformer_out_w7
#52
b0000000000110100 beamformer_in_w0
b0000000000110100 beamformer_in_w1
b0000000000110100 beamformer_in_w2
b0000000000110100 beamformer_in_w3
b0000000000110100 beamformer_out_w0
b0000000000110100 beamformer_out_w1
b0000000000110100 beamformer_out_w2
b0000000000110100 beamformer_out_w3
b0000000000110100 beamformer_out_w4
b0000000000110100 beamformer_out_w5
b0000000000110100 beamformer_out_w6
b0000000000110100 beamformer_out_w7
#53
b0000000000110101 beamformer_in_w0
b0000000000110101 beamformer_in_w1
b0000000000110101 beamformer_in_w2
b0000000000110101 beamformer_in_w3
b0000000000110101 beamformer_out_w0
b0000000000110101 beamformer_out_w1
b0000000000110101 beamformer_out_w2
b0000000000110101 beamformer_out_w3
b0000000000110101 beamformer_out_w4
b0000000000110101 beamformer_out_w5
b0000000000110101 beamformer_out_w6
b0000000000110101 beamformer_out_w7
#54
b0000000000110110 beamformer_in_w0
b0000000000110110 beamformer_in_w1
b0000000000110110 beamformer_in_w2
b0000000000110110 beamformer_in_w3
b0000000000110110 beamformer_out_w0
b0000000000110110 beamformer_out_w1
b0000000000110110 beamformer_out_w2
b0000000000110110 beamformer_out_w3
b0000000000110110 beamformer_out_w4
b0000000000110110 beamformer_out_w5
b0000000000110110 beamformer_out_w6
b0000000000110110 beamformer_out_w7
#55
b0000000000110111 beamformer_in_w0
b0000000000110111 beamformer_in_w1
b0000000000110111 beamformer_in_w2
b0000000000110111 beamformer_in_w3
b0000000000110111 beamformer_out_w0
b0000000000110111 beamformer_out_w1
b0000000000110111 beamformer_out_w2
b0000000000110111 beamformer_out_w3
b0000000000110111 beamformer_out_w4
b0000000000110111 beamformer_out_w5
b0000000000110111 beamformer_out_w6
b0000000000110111 beamformer_out_w7
#56
b0000000000111000 beamformer_in_w0
b0000000000111000 beamformer_in_w1
b0000000000111000 beamformer_in_w2
b0000000000111000 beamformer_in_w3
b0000000000111000 beamformer_out_w0
b0000000000111000 beamformer_out_w1
b0000000000111000 beamformer_out_w2
b0000000000111000 beamformer_out_w3
b0000000000111000 beamformer_out_w4
b0000000000111000 beamformer_out_w5
b0000000000111000 beamformer_out_w6
b0000000000111000 beamformer_out_w7
#57
b0000000000111001 beamformer_in_w0
b0000000000111001 beamformer_in_w1
b0000000000111001 beamformer_in_w2
b0000000000111001 beamformer_in_w3
b0000000000111001 beamformer_out_w0
b0000000000111001 beamformer_out_w1
b0000000000111001 beamformer_out_w2
b0000000000111001 beamformer_out_w3
b0000000000111001 beamformer_out_w4
b0000000000111001 beamformer_out_w5
b0000000000111001 beamformer_out_w6
b0000000000111001 beamformer_out_w7
#58
b0000000000111010 beamformer_in_w0
b0000000000111010 beamformer_in_w1
b0000000000111010 beamformer_in_w2
b0000000000111010 beamformer_in_w3
b0000000000111010 beamformer_out_w0
b0000000000111010 beamformer_out_w1
b0000000000111010 beamformer_out_w2
b0000000000111010 beamformer_out_w3
b0000000000111010 beamformer_out_w4
b0000000000111010 beamformer_out_w5
b0000000000111010 beamformer_out_w6
b0000000000111010 beamformer_out_w7
#59
b0000000000111011 beamformer_in_w0
b0000000000111011 beamformer_in_w1
b0000000000111011 beamformer_in_w2
b0000000000111011 beamformer_in_w3
b0000000000111011 beamformer_out_w0
b0000000000111011 beamformer_out_w1
b0000000000111011 beamformer_out_w2
b0000000000111011 beamformer_out_w3
b0000000000111011 beamformer_out_w4
b0000000000111011 beamformer_out_w5
b0000000000111011 beamformer_out_w6
b0000000000111011 beamformer_out_w7
#60
b0000000000111100 beamformer_in_w0
b0000000000111100 beamformer_in_w1
b0000000000111100 beamformer_in_w2
b0000000000111100 beamformer_in_w3
b0000000000111100 beamformer_out_w0
b0000000000111100 beamformer_out_w1
b0000000000111100 beamformer_out_w2
b0000000000111100 beamformer_out_w3
b0000000000111100 beamformer_out_w4
b0000000000111100 beamformer_out_w5
b0000000000111100 beamformer_out_w6
b0000000000111100 beamformer_out_w7
#61
b0000000000111101 beamformer_in_w0
b0000000000111101 beamformer_in_w1
b0000000000111101 beamformer_in_w2
b0000000000111101 beamformer_in_w3
b0000000000111101 beamformer_out_w0
b0000000000111101 beamformer_out_w1
b0000000000111101 beamformer_out_w2
b0000000000111101 beamformer_out_w3
b0000000000111101 beamformer_out_w4
b0000000000111101 beamformer_out_w5
b0000000000111101 beamformer_out_w6
b0000000000111101 beamformer_out_w7
#62
b0000000000111110 beamformer_in_w0
b0000000000111110 beamformer_in_w1
b0000000000111110 beamformer_in_w2
b0000000000111110 beamformer_in_w3
b0000000000111110 beamformer_out_w0
b0000000000111110 beamformer_out_w1
b0000000000111110 beamformer_out_w2
b0000000000111110 beamformer_out_w3
b0000000000111110 beamformer_out_w4
b0000000000111110 beamformer_out_w5
b0000000000111110 beamformer_out_w6
b0000000000111110 beamformer_out_w7
#63
b0000000000111111 beamformer_in_w0
b0000000000111111 beamformer_in_w1
b0000000000111111 beamformer_in_w2
b0000000000111111 beamformer_in_w3
b0000000000111111 beamformer_out_w0
b0000000000111111 beamformer_out_w1
b0000000000111111 beamformer_out_w2
b0000000000111111 beamformer_out_w3
b0000000000111111 beamformer_out_w4
b0000000000111111 beamformer_out_w5
b0000000000111111 beamformer_out_w6
b0000000000111111 beamformer_out_w7
#64
b0000000001000000 beamformer_in_w0
b0000000001000000 beamformer_in_w1
b0000000001000000 beamformer_in_w2
b0000000001000000 beamformer_in_w3
b0000000001000000 beamformer_out_w0
b0000000001000000 beamformer_out_w1
b0000000001000000 beamformer_out_w2
b0000000001000000 beamformer_out_w3
b0000000001000000 beamformer_out_w4
b0000000001000000 beamformer_out_w5
b0000000001000000 beamformer_out_w6
b0000000001000000 beamformer_out_w7
#65
b0000000001000001 beamformer_in_w0
b0000000001000001 beamformer_in_w1
b0000000001000001 beamformer_in_w2
b0000000001000001 beamformer_in_w3
b0000000001000001 beamformer_out_w0
b0000000001000001 beamformer_out_w1
b0000000001000001 beamformer_out_w2
b0000000001000001 beamformer_out_w3
b0000000001000001 beamformer_out_w4
b0000000001000001 beamformer_out_w5
b0000000001000001 beamformer_out_w6
b0000000001000001 beamformer_out_w7
